Name	FileName	Target
BT1.CEL	BT1.CEL	time1
BT2.CEL	BT2.CEL	time2
BT3.CEL	BT3.CEL	time3
BT4.CEL	BT4.CEL	time4
BT5.CEL	BT5.CEL	time5
BT6.CEL	BT6.CEL	time6
BT7.CEL	BT7.CEL	time7
BT8.CEL	BT8.CEL	time8
BT9.CEL	BT9.CEL	time9
BT10.CEL	BT10.CEL	time10
BT11.CEL	BT11.CEL	time11
BT12.CEL	BT12.CEL	time12
BT13.CEL	BT13.CEL	time13
BT14.CEL	BT14.CEL	time14
BT15.CEL	BT15.CEL	time15
BT16.CEL	BT16.CEL	time16
BT17.CEL	BT17.CEL	time17
BT18.CEL	BT18.CEL	time18
BT19.CEL	BT19.CEL	time19
BT20.CEL	BT20.CEL	time20
BT21.CEL	BT21.CEL	time21
BT22.CEL	BT22.CEL	time22
BT23.CEL	BT23.CEL	time23
BT24.CEL	BT24.CEL	time24
BT25.CEL	BT25.CEL	time25
BT26.CEL	BT26.CEL	time26
BT27.CEL	BT27.CEL	time27
BT28.CEL	BT28.CEL	time28
BT29.CEL	BT29.CEL	time29
BT30.CEL	BT30.CEL	time30
BT31.CEL	BT31.CEL	time31
BT32.CEL	BT32.CEL	time32
BT33.CEL	BT33.CEL	time33
BT34.CEL	BT34.CEL	time34
BT35.CEL	BT35.CEL	time35
BT36.CEL	BT36.CEL	time36
